Josiah Parry - Fishnets and overlapping polygons
…
# join it back to the grid
hex_area_overlap <- st_drop_geometry(overlap_area) |> 
  select(hex_id, area) |> 
  right_join(grd, by = "hex_id") |> 
  st_as_sf() 

hex_area_overlap

Simple feature collection with 1381 features and 2 fields
Geometry type: POLYGON
Dimension:     XY
Bounding box:  xmin: -84.55738 ymin: 33.64417 xmax: -84.28635 ymax: 33.88926
Geodetic CRS:  WGS 84
# A tibble: 1,381 × 3
   hex_id    area                                                              x
    <int>   [m^2]                                                  <POLYGON [°]>
 1     72 160485. ((-84.5182 33.65548, -84.52146 33.65737, -84.52146 33.66114, …
 2     84  44538. ((-84.51493 33.64983, -84.5182 33.65171, -84.5182 33.65548, -…
 3     85 176134. ((-84.51493 33.66114, -84.5182 33.66302, -84.5182 33.66679, -…
 4     87   5049. ((-84.51493 33.68376, -84.5182 33.68565, -84.5182 33.68942, -…
 5     97 380145. ((-84.51167 33.65548, -84.51493 33.65737, -84.51493 33.66114,…
 6    100 110821. ((-84.51167 33.68942, -84.51493 33.6913, -84.51493 33.69507, …
 7    106   8232. ((-84.51167 33.75729, -84.51493 33.75917, -84.51493 33.76294,…
 8    110 109249. ((-84.5084 33.64983, -84.51167 33.65171, -84.51167 33.65548, …
 9    111 150687. ((-84.5084 33.66114, -84.51167 33.66302, -84.51167 33.66679, …
10    113 141654. ((-84.5084 33.68376, -84.51167 33.68565, -84.51167 33.68942, …
# … with 1,371 more rows
# ℹ Use `print(n = ...)` to see more rows
…
