Josiah Parry - Rust traits for R users
…
Attaching package: 'sdf'

The following object is masked from 'package:sf':

    is_geometry

# get some sample data 
g <- sfdep::guerry[, "region"]

as_sdf(g)

Geometry Type: sfc_MULTIPOLYGON
Bounding box: xmin: 47680 ymin: 1703258 xmax: 1031401 ymax: 2677441
# A tibble: 85 × 2
   region                                                               geometry
   <fct>                                                          <MULTIPOLYGON>
 1 E      (((801150 2092615, 800669 2093190, 800688 2095430, 800780 2095795, 80…
 2 N      (((729326 2521619, 729320 2521230, 729280 2518544, 728751 2517520, 72…
 3 C      (((710830 2137350, 711746 2136617, 712430 2135212, 712070 2134132, 71…
 4 E      (((882701 1920024, 882408 1920733, 881778 1921200, 881526 1922332, 87…
 5 E      (((886504 1922890, 885733 1922978, 885479 1923276, 883061 1925266, 88…
 6 S      (((747008 1925789, 746630 1925762, 745723 1925138, 744216 1925236, 74…
 7 N      (((818893 2514767, 818614 2514515, 817900 2514467, 817327 2514945, 81…
 8 S      (((509103 1747787, 508820 1747513, 508154 1747093, 505861 1746627, 50…
 9 E      (((775400 2345600, 775068 2345397, 773587 2345177, 772940 2344780, 77…
10 S      (((626230 1810121, 626269 1810496, 627494 1811321, 627681 1812424, 62…
# … with 75 more rows
…
Next we cast it to an sdf object by using as_sdf().

diamond_sdf <- as_sdf(diamond_pnts) 
diamond_sdf

Geometry Type: Point
Bounding box: xmin: 0 ymin: 0 xmax: 10.74 ymax: 58.9
# A tibble: 53,940 × 2
   cut             pnts
   <ord>        <Point>
 1 Ideal     3.95, 3.98
 2 Premium   3.89, 3.84
 3 Good      4.05, 4.07
 4 Premium   4.20, 4.23
 5 Good      4.34, 4.35
 6 Very Good 3.94, 3.96
 7 Very Good 3.95, 3.98
 8 Very Good 4.07, 4.11
 9 Fair      3.87, 3.78
10 Very Good 4.00, 4.05
# … with 53,930 more rows
…
