Josiah Parry - Google Trends for Campaigns
…
Trendy creates an object of class trendy see class(candidate_trends) trendy. There are a number of accessor functions. We will use get_interest() and get_related_queries(). See the documentation of the others.

To access to relative popularity, we will use get_interest(trendy).

popularity <- get_interest(candidate_trends)

popularity
#> # A tibble: 55 × 7
#>    date                 hits keyword   geo   time                  gprop category      
#>    <dttm>              <int> <chr>     <chr> <chr>                 <chr> <chr>         
#>  1 2022-10-31 00:00:00    48 Joe Biden world 2022-10-31 2022-11-14 web   All categories
#>  2 2022-11-01 00:00:00    42 Joe Biden world 2022-10-31 2022-11-14 web   All categories
#>  3 2022-11-02 00:00:00    51 Joe Biden world 2022-10-31 2022-11-14 web   All categories
#>  4 2022-11-03 00:00:00    52 Joe Biden world 2022-10-31 2022-11-14 web   All categories
#>  5 2022-11-04 00:00:00    47 Joe Biden world 2022-10-31 2022-11-14 web   All categories
#>  6 2022-11-05 00:00:00    45 Joe Biden world 2022-10-31 2022-11-14 web   All categories
#>  7 2022-11-06 00:00:00    46 Joe Biden world 2022-10-31 2022-11-14 web   All categories
#>  8 2022-11-07 00:00:00    52 Joe Biden world 2022-10-31 2022-11-14 web   All categories
#>  9 2022-11-08 00:00:00    67 Joe Biden world 2022-10-31 2022-11-14 web   All categories
#> 10 2022-11-09 00:00:00   100 Joe Biden world 2022-10-31 2022-11-14 web   All categories
#> # … with 45 more rows
#> # ℹ Use `print(n = ...)` to see more rows

For related queries we will use get_related_queries(trendy). Note that you can either pipe the object or pass it directly.

candidate_trends %>% 
  get_related_queries() %>% 
  # picking queries for a random candidate
  filter(keyword == sample(candidates, 1))
#> # A tibble: 42 × 5
#>    subject related_queries value                    keyword        category      
#>    <chr>   <chr>           <chr>                    <chr>          <chr>         
#>  1 100     top             election                 Bernie Sanders All categories
#>  2 68      top             big mouth bernie sanders Bernie Sanders All categories
#>  3 61      top             biden                    Bernie Sanders All categories
#>  4 56      top             election results         Bernie Sanders All categories
#>  5 47      top             bernie sanders meme      Bernie Sanders All categories
#>  6 37      top             bernie sanders party     Bernie Sanders All categories
#>  7 33      top             bernie sanders age       Bernie Sanders All categories
#>  8 33      top             joe biden                Bernie Sanders All categories
#>  9 33      top             trump                    Bernie Sanders All categories
#> 10 30      top             donald trump             Bernie Sanders All categories
#> # … with 32 more rows
#> # ℹ Use `print(n = ...)` to see more rows
…
