Josiah Parry - Introducing trendyy
…
In order to retrieve the trend data, use get_interest(). Note, that this is dplyr friendly.

get_interest(candidate_trends)
#> # A tibble: 1,005 × 7
#>    date                 hits keyword   geo   time                  gprop category      
#>    <dttm>              <int> <chr>     <chr> <chr>                 <chr> <chr>         
#>  1 2019-01-06 00:00:00     1 Joe Biden world 2019-01-01 2022-11-14 web   All categories
#>  2 2019-01-13 00:00:00     1 Joe Biden world 2019-01-01 2022-11-14 web   All categories
#>  3 2019-01-20 00:00:00     1 Joe Biden world 2019-01-01 2022-11-14 web   All categories
#>  4 2019-01-27 00:00:00     1 Joe Biden world 2019-01-01 2022-11-14 web   All categories
#>  5 2019-02-03 00:00:00     1 Joe Biden world 2019-01-01 2022-11-14 web   All categories
#>  6 2019-02-10 00:00:00     1 Joe Biden world 2019-01-01 2022-11-14 web   All categories
#>  7 2019-02-17 00:00:00     1 Joe Biden world 2019-01-01 2022-11-14 web   All categories
#>  8 2019-02-24 00:00:00     1 Joe Biden world 2019-01-01 2022-11-14 web   All categories
#>  9 2019-03-03 00:00:00     1 Joe Biden world 2019-01-01 2022-11-14 web   All categories
#> 10 2019-03-10 00:00:00     1 Joe Biden world 2019-01-01 2022-11-14 web   All categories
#> # … with 995 more rows
#> # ℹ Use `print(n = ...)` to see more rows
…
