Josiah Parry - {duckdb} or {duckplyr}?
…
show_query(avg_price_by_age)

<SQL>
SELECT houseAge, AVG(houseValue) AS avg_val
FROM (FROM '/var/folders/wd/xq999jjj3bx2w8cpg7lkfxlm0000gn/T//Rtmpt7T0Xr/file84ac12eaa270.csv') q01
GROUP BY houseAge

Bring the results into memory

Use dplyr::collect() to bring the results into memory as an actual tibble!

avg_price_df <- collect(avg_price_by_age)
avg_price_df

# A tibble: 52 × 2
   houseAge avg_val
      <dbl>   <dbl>
 1       17 190494.
 2       35 207299.
 3       37 207361.
 4       44 216233.
 5       30 200253.
 6       14 189597.
 7        5 208418.
 8        9 186673.
 9       21 200157.
10       25 220414.
# ℹ 42 more rows
