Josiah Parry - h3o for H3 indexing
…
library(dplyr, warn.conflicts = FALSE)

hexs <- tibble(geometry = pnts) |> 
  st_as_sf() |> 
  mutate(h3 = h3_from_points(geometry, 4))

hexs

Simple feature collection with 25 features and 1 field
Geometry type: POINT
Dimension:     XY
Bounding box:  xmin: -110.8122 ymin: 41.34477 xmax: -104.076 ymax: 44.9885
Geodetic CRS:  WGS 84
# A tibble: 25 × 2
               geometry              h3
 *          <POINT [°]>            <H3>
 1  (-106.4329 44.2269) 8426a69ffffffff
 2  (-108.884 41.71222) 8426b3bffffffff
 3 (-104.5573 43.29705) 8426a57ffffffff
 4  (-110.137 43.82095) 8426b45ffffffff
 5 (-105.2453 43.45441) 8426a09ffffffff
 6 (-104.6144 42.59424) 8426a15ffffffff
 7 (-104.9215 42.31367) 8426a3bffffffff
 8  (-108.5317 44.9885) 84279abffffffff
 9 (-104.1934 44.22573) 84278b7ffffffff
10 (-107.2504 44.14613) 8426a6dffffffff
# ℹ 15 more rows
…
